nombre,codigo,requisitos,semestre,nro_semestre
Precalculo,IN1000,,O;P,0
Introduccion a las matematicas discretas,IN1001,,O;P,0
Fisica 1,IN1002,,O;P,0
Herramientas computacionales,IN1003,,O;P,0
Quimica,IN1004,,O;P,0
Introduccion a la ingenieria,IN1005,,O,0
Calculo diferencial e integral,IN1006,IN1000,O;P,1
Algebra lineal,IN1009,IN1001,P,1
Fisica 2,IN1008,IN1000;IN1002,P,1
Programacion,IN1007,IN1003,O;P,1
Introduccion a las geociencias,IN1010,IN1004,P,1
Calculo avanzado,IN2001,IN1006;IN1009,O,2
Ecuaciones diferenciales,IN2002,IN1006;IN1009,O;P,2
Matematicas discretas,IC2001,IN1001,O,2
Algoritmos y estructuras de datos,IC2002,IN1007,O,2
Comunicacion Oral y escrita,IN2003,,O,2
Introduccion a la bioingenieria,IN2006,IN1008,P,3
Programacion de software de sistemas,IC2102,IC2002,P,3
Electromagnetismo aplicado,IE2003,IN2001;IN2002,P,3
Metodos numericos,IN2005,IN1007;IN2002,P,3
Probabilidades y estadisticas,IN2004,IN1006,P,3
Computacion grafica y aplicaciones,IC3001,IN1007;IN2001,O,4
Bases de datos,IC3002,IC2001,O,4
Analisis y diseno de software,IC3003,IC2002,O,4
Lenguajes de programacion,IC3004,IC2102,O,4
Etica y responsabilidad social en ingenieria,IN3000,IN1005;IN2003,O,4
Legislacion en ingenieria y medio ambiente,IN3001,IN1010;IN2003;IN2006,P,5
Teoria de la computacion,IC3101,IC2001,P,5
Interaccion Humano-Computador,IC3103,IC3003,P,5
Arquitectura de computadores,IC3102,IC2102;IE2003,P,5
Economia y gestion,IN3002,IN2001,P,5
Formulacion y evaluacion de proyectos,ING4001,IN3000;IN3002,O,7
Sistemas operativos,COM4201,IC3102,O,7
Ingenieria de Software,COM4301,IC3002;IC3103,O,7
Diseno y analisis de algoritmos,COM4101,IC2002;IC3101,O,7
Mineria de datos,COM4001,IN1007;IN2004,O,7